{ "height":1,
 "infinite":false,
 "layers":[
        {
         "data":[0],
         "height":1,
         "name":"Tile Layer 1",
         "opacity":1,
         "type":"tilelayer",
         "visible":true,
         "width":1,
         "x":0,
         "y":0
        }, 
        {
         "draworder":"topdown",
         "name":"Def",
         "objects":[],
         "opacity":1,
         "properties":
            {
             "Angle":60,
             "Color":"#ffaa55ff",
             "ObjType":"FLASHLIGHT",
             "Range":150
            },
         "propertytypes":
            {
             "Angle":"int",
             "Color":"color",
             "ObjType":"string",
             "Range":"int"
            },
         "type":"objectgroup",
         "visible":true,
         "x":0,
         "y":0
        }],
 "nextobjectid":1,
 "orientation":"orthogonal",
 "renderorder":"right-down",
 "tiledversion":"1.1.4",
 "tileheight":32,
 "tilesets":[],
 "tilewidth":32,
 "type":"map",
 "version":1,
 "width":1
}