{ "height":1,
 "infinite":false,
 "layers":[
        {
         "data":[0],
         "height":1,
         "name":"Tile Layer 1",
         "opacity":1,
         "type":"tilelayer",
         "visible":true,
         "width":1,
         "x":0,
         "y":0
        }, 
        {
         "draworder":"topdown",
         "name":"Def",
         "objects":[
                {
                 "height":53,
                 "id":1,
                 "name":"Sprite",
                 "rotation":0,
                 "type":"",
                 "visible":true,
                 "width":49.2142857142857,
                 "x":26,
                 "y":28
                }, 
                {
                 "height":18.9285714285714,
                 "id":4,
                 "name":"Body",
                 "rotation":0,
                 "type":"",
                 "visible":true,
                 "width":32,
                 "x":35,
                 "y":59
                }],
         "opacity":1,
         "properties":
            {
             "ObjType":"PLAYER",
             "SKILL_POINT_Agility":1,
             "SKILL_POINT_Stealth":1,
             "SKILL_POINT_Strength":1,
             "STAT_Health":100,
             "STAT_HealthRegen":2,
             "STAT_Speed":150,
             "STAT_Stamina":100,
             "STAT_StaminaRegen":5
            },
         "propertytypes":
            {
             "ObjType":"string",
             "SKILL_POINT_Agility":"int",
             "SKILL_POINT_Stealth":"int",
             "SKILL_POINT_Strength":"int",
             "STAT_Health":"int",
             "STAT_HealthRegen":"int",
             "STAT_Speed":"int",
             "STAT_Stamina":"int",
             "STAT_StaminaRegen":"int"
            },
         "type":"objectgroup",
         "visible":true,
         "x":0,
         "y":0
        }],
 "nextobjectid":5,
 "orientation":"orthogonal",
 "renderorder":"right-down",
 "tiledversion":"1.1.4",
 "tileheight":100,
 "tilesets":[],
 "tilewidth":100,
 "type":"map",
 "version":1,
 "width":1
}